C:\Users\Siketyan\Documents\Eclipse\SikeServer-Shop\src\main\java\com\sikeserver\shop\listener\SignClickListener.java
C:\Users\Siketyan\Documents\Eclipse\SikeServer-Shop\src\main\java\com\sikeserver\shop\listener\SignCreateListener.java
C:\Users\Siketyan\Documents\Eclipse\SikeServer-Shop\src\main\java\com\sikeserver\shop\listener\ChestClickListener.java
C:\Users\Siketyan\Documents\Eclipse\SikeServer-Shop\src\main\java\com\sikeserver\shop\ShopManager.java
C:\Users\Siketyan\Documents\Eclipse\SikeServer-Shop\src\main\java\com\sikeserver\shop\command\WhatsThis.java
C:\Users\Siketyan\Documents\Eclipse\SikeServer-Shop\src\main\java\com\sikeserver\shop\listener\ShopBreakListener.java
C:\Users\Siketyan\Documents\Eclipse\SikeServer-Shop\src\main\java\com\sikeserver\shop\listener\ChestPlaceListener.java
